<?xml version="1.0" encoding="UTF-8"?>
<svg width="22.4166667px" height="15.444px" viewBox="0 0 22.4166667 15.444" version="1.1" xmlns="http://www.w3.org/2000/svg" xmlns:xlink="http://www.w3.org/1999/xlink">
    <title>A7514C56-2854-4928-858A-9DC9C8DCA5BD</title>
    <g id="UI-KIt" stroke="none" stroke-width="1" fill="none" fill-rule="evenodd">
        <g id="Carousel" transform="translate(-296.666667, -1493.800000)" fill="#231F20" fill-rule="nonzero">
            <g id="Group-17" transform="translate(0.000000, 727.000000)">
                <g id="Group-9" transform="translate(280.000000, 749.000000)">
                    <g id="Group-14" transform="translate(8.000000, 5.000000)">
                        <g id="west_FILL0_wght600_GRAD0_opsz40" transform="translate(8.666667, 12.800000)">
                            <path d="M6.83333333,15.0833333 L0.333333333,8.58333333 C0.203555556,8.45355556 0.115555556,8.31933333 0.0693333333,8.18066667 C0.0231111111,8.04155556 0,7.88866667 0,7.722 C0,7.55533333 0.0231111111,7.40244444 0.0693333333,7.26333333 C0.115555556,7.12466667 0.203555556,6.99044444 0.333333333,6.86066667 L6.83333333,0.360666667 C7.07377778,0.120222222 7.36533333,0 7.708,0 C8.05066667,0 8.34244444,0.120222222 8.58333333,0.360666667 C8.80555556,0.601555556 8.92111111,0.888666667 8.93,1.222 C8.93933333,1.55533333 8.82377778,1.84244444 8.58333333,2.08333333 L4.16666667,6.5 L21.194,6.5 C21.546,6.5 21.8377778,6.61577778 22.0693333,6.84733333 C22.3008889,7.07844444 22.4166667,7.37 22.4166667,7.722 C22.4166667,8.074 22.3008889,8.36555556 22.0693333,8.59666667 C21.8377778,8.82822222 21.546,8.944 21.194,8.944 L4.16666667,8.944 L8.58333333,13.3606667 C8.80555556,13.6015556 8.92111111,13.8886667 8.93,14.222 C8.93933333,14.5553333 8.82377778,14.8424444 8.58333333,15.0833333 C8.34244444,15.3237778 8.05066667,15.444 7.708,15.444 C7.36533333,15.444 7.07377778,15.3237778 6.83333333,15.0833333 L6.83333333,15.0833333 Z" id="Path"></path>
                        </g>
                    </g>
                </g>
            </g>
        </g>
    </g>
</svg>